[
  {
    "name": "Firefox",
    "baseUrl": "https://download.mozilla.org/?product=fennec-latest&os=android{arch}&lang=multi",
    "architectures": ["", "-x86"]
  },
  {
    "name": "Firefox Beta",
    "baseUrl": "https://download.mozilla.org/?product=fennec-beta-latest&os=android{arch}&lang=multi",
    "architectures": ["", "-x86"],
    "ignoreErrors": true
  },
  {
    "name": "Firefox Nightly",
    "baseUrl": "https://download.mozilla.org/?product=fennec-nightly-latest&os=android{arch}&lang=multi",
    "architectures": ["", "-x86"],
    "ignoreErrors": true
  },
  {
    "name": "Firefox Preview",
    "baseUrl": "https://github.com/mozilla-mobile/fenix/releases/download/{ver}/firefox_preview_{ver}_{arch}.apk",
    "architectures": ["arm", "x86"],
    "version": {
      "url": "https://api.github.com/repos/mozilla-mobile/fenix/releases/latest",
      "json": "tag_name"
    },
    "ignoreErrors": true
  },
  {
    "name": "Firefox Focus",
    "baseUrl": "https://github.com/mozilla-mobile/focus-android/releases/download/{ver}/Focus-{arch}.apk",
    "architectures": ["arm"],
    "version": {
      "url": "https://api.github.com/repos/mozilla-mobile/focus-android/releases/latest",
      "json": "tag_name"
    }
  },
  {
    "name": "Firefox Klar",
    "baseUrl": "https://github.com/mozilla-mobile/focus-android/releases/download/{ver}/Klar-{arch}.apk",
    "architectures": ["arm", "x86"],
    "version": {
      "url": "https://api.github.com/repos/mozilla-mobile/focus-android/releases/latest",
      "json": "tag_name"
    },
    "ignoreErrors": true
  },
  {
    "name": "Brave",
    "baseUrl": "https://github.com/brave/browser-android-tabs/releases/download/{ver}/Brave{arch}.apk",
    "architectures": ["arm", "x86"],
    "version": {
      "url": "https://api.github.com/repos/brave/browser-android-tabs/releases/latest",
      "json": "tag_name"
    }
  },
  {
    "name": "Signal",
    "baseUrl": "https://updates.signal.org/android/Signal-website-universal-release-{ver}.apk",
    "version": {
      "url": "https://updates.signal.org/android/latest.json",
      "json": "versionName"
    }
  },
  {
    "name": "Abrowser",
    "baseUrl": "https://github.com/proninyaroslav/abrowser-android/releases/download/{ver}/abrowser-{ver}.en-US.android-{arch}.apk",
    "architectures": ["arm", "i686"],
    "version": {
      "url": "https://api.github.com/repos/proninyaroslav/abrowser-android/releases/latest",
      "json": "tag_name"
    }
  },
  {
    "name": "Wire",
    "baseUrl": "https://wire-app.wire.com/android/prod/wire-prod-release-{ver}.apk",
    "version": {
      "url": "https://api.github.com/repos/wireapp/wire-android/releases/latest",
      "json": "tag_name"
    },
    "ignoreErrors": true
  },
  {
    "name": "Kiwix",
    "baseUrl": "https://download.kiwix.org/release/kiwix-android/kiwix.apk"
  },
  {
    "name": "Spotify",
    "baseUrl": "http://download.spotify.com/android/SpotifyAndroid.apk"
  }
]
